{ "url" : "https://www.balldontlie.io/api/v1/stats?postseason=true&seasons[]=2019&page=0&pageSize=25",

  "data": [
    {
      "id": 2791507,
      "ast": 0,
      "blk": 0,
      "dreb": 0,
      "fg3_pct": 50.0,
      "fg3a": 2,
      "fg3m": 1,
      "fg_pct": 66.7,
      "fga": 3,
      "fgm": 2,
      "ft_pct": 100.0,
      "fta": 1,
      "ftm": 1,
      "game": {
        "id": 117687,
        "date": "2020-08-18T00:00:00.000Z",
        "home_team_id": 17,
        "home_team_score": 110,
        "period": 4,
        "postseason": true,
        "season": 2019,
        "status": "Final",
        "time": "",
        "visitor_team_id": 22,
        "visitor_team_score": 122
      },
      "min": "10:08",
      "oreb": 1,
      "pf": 1,
      "player": {
        "id": 262,
        "first_name": "Kyle",
        "height_feet": 6,
        "height_inches": 7,
        "last_name": "Korver",
        "position": "G-F",
        "team_id": 17,
        "weight_pounds": 212
      },
      "pts": 6,
      "reb": 1,
      "stl": 0,
      "team": {
        "id": 17,
        "abbreviation": "MIL",
        "city": "Milwaukee",
        "conference": "East",
        "division": "Central",
        "full_name": "Milwaukee Bucks",
        "name": "Bucks"
      },
      "turnover": 0
    },
    {
      "id": 2791504,
      "ast": 1,
      "blk": 0,
      "dreb": 3,
      "fg3_pct": 50.0,
      "fg3a": 4,
      "fg3m": 2,
      "fg_pct": 50.0,
      "fga": 4,
      "fgm": 2,
      "ft_pct": 0.0,
      "fta": 0,
      "ftm": 0,
      "game": {
        "id": 117687,
        "date": "2020-08-18T00:00:00.000Z",
        "home_team_id": 17,
        "home_team_score": 110,
        "period": 4,
        "postseason": true,
        "season": 2019,
        "status": "Final",
        "time": "",
        "visitor_team_id": 22,
        "visitor_team_score": 122
      },
      "min": "16:19",
      "oreb": 0,
      "pf": 2,
      "player": {
        "id": 482,
        "first_name": "Marvin",
        "height_feet": 6,
        "height_inches": 9,
        "last_name": "Williams",
        "position": "F",
        "team_id": 17,
        "weight_pounds": 237
      },
      "pts": 6,
      "reb": 3,
      "stl": 0,
      "team": {
        "id": 17,
        "abbreviation": "MIL",
        "city": "Milwaukee",
        "conference": "East",
        "division": "Central",
        "full_name": "Milwaukee Bucks",
        "name": "Bucks"
      },
      "turnover": 2
    },
    {
      "id": 2791491,
      "ast": 11,
      "blk": 0,
      "dreb": 3,
      "fg3_pct": 25.0,
      "fg3a": 4,
      "fg3m": 1,
      "fg_pct": 27.3,
      "fga": 11,
      "fgm": 3,
      "ft_pct": 100.0,
      "fta": 4,
      "ftm": 4,
      "game": {
        "id": 117687,
        "date": "2020-08-18T00:00:00.000Z",
        "home_team_id": 17,
        "home_team_score": 110,
        "period": 4,
        "postseason": true,
        "season": 2019,
        "status": "Final",
        "time": "",
        "visitor_team_id": 22,
        "visitor_team_score": 122
      },
      "min": "23:28",
      "oreb": 0,
      "pf": 0,
      "player": {
        "id": 21,
        "first_name": "D.J.",
        "height_feet": 6,
        "height_inches": 0,
        "last_name": "Augustin",
        "position": "G",
        "team_id": 11,
        "weight_pounds": 183
      },
      "pts": 11,
      "reb": 3,
      "stl": 1,
      "team": {
        "id": 22,
        "abbreviation": "ORL",
        "city": "Orlando",
        "conference": "East",
        "division": "Southeast",
        "full_name": "Orlando Magic",
        "name": "Magic"
      },
      "turnover": 2
    },
    {
      "id": 2791499,
      "ast": 1,
      "blk": 1,
      "dreb": 2,
      "fg3_pct": 0.0,
      "fg3a": 4,
      "fg3m": 0,
      "fg_pct": 22.2,
      "fga": 9,
      "fgm": 2,
      "ft_pct": 50.0,
      "fta": 2,
      "ftm": 1,
      "game": {
        "id": 117687,
        "date": "2020-08-18T00:00:00.000Z",
        "home_team_id": 17,
        "home_team_score": 110,
        "period": 4,
        "postseason": true,
        "season": 2019,
        "status": "Final",
        "time": "",
        "visitor_team_id": 22,
        "visitor_team_score": 122
      },
      "min": "29:39",
      "oreb": 2,
      "pf": 2,
      "player": {
        "id": 283,
        "first_name": "Brook",
        "height_feet": 7,
        "height_inches": 0,
        "last_name": "Lopez",
        "position": "C",
        "team_id": 17,
        "weight_pounds": 270
      },
      "pts": 5,
      "reb": 4,
      "stl": 1,
      "team": {
        "id": 17,
        "abbreviation": "MIL",
        "city": "Milwaukee",
        "conference": "East",
        "division": "Central",
        "full_name": "Milwaukee Bucks",
        "name": "Bucks"
      },
      "turnover": 1
    },
    {
      "id": 2791506,
      "ast": 0,
      "blk": 0,
      "dreb": 1,
      "fg3_pct": 0.0,
      "fg3a": 0,
      "fg3m": 0,
      "fg_pct": 100.0,
      "fga": 1,
      "fgm": 1,
      "ft_pct": 0.0,
      "fta": 0,
      "ftm": 0,
      "game": {
        "id": 117687,
        "date": "2020-08-18T00:00:00.000Z",
        "home_team_id": 17,
        "home_team_score": 110,
        "period": 4,
        "postseason": true,
        "season": 2019,
        "status": "Final",
        "time": "",
        "visitor_team_id": 22,
        "visitor_team_score": 122
      },
      "min": "2:25",
      "oreb": 0,
      "pf": 0,
      "player": {
        "id": 284,
        "first_name": "Robin",
        "height_feet": 7,
        "height_inches": 0,
        "last_name": "Lopez",
        "position": "C",
        "team_id": 22,
        "weight_pounds": 275
      },
      "pts": 2,
      "reb": 1,
      "stl": 0,
      "team": {
        "id": 17,
        "abbreviation": "MIL",
        "city": "Milwaukee",
        "conference": "East",
        "division": "Central",
        "full_name": "Milwaukee Bucks",
        "name": "Bucks"
      },
      "turnover": 0
    },
    {
      "id": 2791503,
      "ast": 5,
      "blk": 0,
      "dreb": 2,
      "fg3_pct": 50.0,
      "fg3a": 4,
      "fg3m": 2,
      "fg_pct": 55.6,
      "fga": 9,
      "fgm": 5,
      "ft_pct": 80.0,
      "fta": 5,
      "ftm": 4,
      "game": {
        "id": 117687,
        "date": "2020-08-18T00:00:00.000Z",
        "home_team_id": 17,
        "home_team_score": 110,
        "period": 4,
        "postseason": true,
        "season": 2019,
        "status": "Final",
        "time": "",
        "visitor_team_id": 22,
        "visitor_team_score": 122
      },
      "min": "26:46",
      "oreb": 0,
      "pf": 1,
      "player": {
        "id": 211,
        "first_name": "George",
        "height_feet": 6,
        "height_inches": 3,
        "last_name": "Hill",
        "position": "G",
        "team_id": 17,
        "weight_pounds": 188
      },
      "pts": 16,
      "reb": 2,
      "stl": 1,
      "team": {
        "id": 17,
        "abbreviation": "MIL",
        "city": "Milwaukee",
        "conference": "East",
        "division": "Central",
        "full_name": "Milwaukee Bucks",
        "name": "Bucks"
      },
      "turnover": 1
    },
    {
      "id": 2791500,
      "ast": 2,
      "blk": 0,
      "dreb": 3,
      "fg3_pct": 50.0,
      "fg3a": 4,
      "fg3m": 2,
      "fg_pct": 66.7,
      "fga": 6,
      "fgm": 4,
      "ft_pct": 0.0,
      "fta": 0,
      "ftm": 0,
      "game": {
        "id": 117687,
        "date": "2020-08-18T00:00:00.000Z",
        "home_team_id": 17,
        "home_team_score": 110,
        "period": 4,
        "postseason": true,
        "season": 2019,
        "status": "Final",
        "time": "",
        "visitor_team_id": 22,
        "visitor_team_score": 122
      },
      "min": "25:45",
      "oreb": 1,
      "pf": 0,
      "player": {
        "id": 301,
        "first_name": "Wesley",
        "height_feet": null,
        "height_inches": null,
        "last_name": "Matthews",
        "position": "G-F",
        "team_id": 17,
        "weight_pounds": null
      },
      "pts": 10,
      "reb": 4,
      "stl": 1,
      "team": {
        "id": 17,
        "abbreviation": "MIL",
        "city": "Milwaukee",
        "conference": "East",
        "division": "Central",
        "full_name": "Milwaukee Bucks",
        "name": "Bucks"
      },
      "turnover": 0
    },
    {
      "id": 2791501,
      "ast": 5,
      "blk": 1,
      "dreb": 1,
      "fg3_pct": 20.0,
      "fg3a": 5,
      "fg3m": 1,
      "fg_pct": 45.5,
      "fga": 11,
      "fgm": 5,
      "ft_pct": 80.0,
      "fta": 5,
      "ftm": 4,
      "game": {
        "id": 117687,
        "date": "2020-08-18T00:00:00.000Z",
        "home_team_id": 17,
        "home_team_score": 110,
        "period": 4,
        "postseason": true,
        "season": 2019,
        "status": "Final",
        "time": "",
        "visitor_team_id": 22,
        "visitor_team_score": 122
      },
      "min": "27:44",
      "oreb": 1,
      "pf": 1,
      "player": {
        "id": 51,
        "first_name": "Eric",
        "height_feet": 6,
        "height_inches": 1,
        "last_name": "Bledsoe",
        "position": "G",
        "team_id": 13,
        "weight_pounds": 205
      },
      "pts": 15,
      "reb": 2,
      "stl": 1,
      "team": {
        "id": 17,
        "abbreviation": "MIL",
        "city": "Milwaukee",
        "conference": "East",
        "division": "Central",
        "full_name": "Milwaukee Bucks",
        "name": "Bucks"
      },
      "turnover": 2
    },
    {
      "id": 2791487,
      "ast": 4,
      "blk": 0,
      "dreb": 11,
      "fg3_pct": 62.5,
      "fg3a": 8,
      "fg3m": 5,
      "fg_pct": 62.5,
      "fga": 24,
      "fgm": 15,
      "ft_pct": 0.0,
      "fta": 0,
      "ftm": 0,
      "game": {
        "id": 117687,
        "date": "2020-08-18T00:00:00.000Z",
        "home_team_id": 17,
        "home_team_score": 110,
        "period": 4,
        "postseason": true,
        "season": 2019,
        "status": "Final",
        "time": "",
        "visitor_team_id": 22,
        "visitor_team_score": 122
      },
      "min": "36:30",
      "oreb": 3,
      "pf": 3,
      "player": {
        "id": 460,
        "first_name": "Nikola",
        "height_feet": 7,
        "height_inches": 0,
        "last_name": "Vucevic",
        "position": "C",
        "team_id": 5,
        "weight_pounds": 260
      },
      "pts": 35,
      "reb": 14,
      "stl": 1,
      "team": {
        "id": 22,
        "abbreviation": "ORL",
        "city": "Orlando",
        "conference": "East",
        "division": "Southeast",
        "full_name": "Orlando Magic",
        "name": "Magic"
      },
      "turnover": 5
    },
    {
      "id": 2791490,
      "ast": 1,
      "blk": 0,
      "dreb": 6,
      "fg3_pct": 0.0,
      "fg3a": 3,
      "fg3m": 0,
      "fg_pct": 53.8,
      "fga": 13,
      "fgm": 7,
      "ft_pct": 100.0,
      "fta": 4,
      "ftm": 4,
      "game": {
        "id": 117687,
        "date": "2020-08-18T00:00:00.000Z",
        "home_team_id": 17,
        "home_team_score": 110,
        "period": 4,
        "postseason": true,
        "season": 2019,
        "status": "Final",
        "time": "",
        "visitor_team_id": 22,
        "visitor_team_score": 122
      },
      "min": "28:28",
      "oreb": 0,
      "pf": 5,
      "player": {
        "id": 402,
        "first_name": "Terrence",
        "height_feet": 6,
        "height_inches": 7,
        "last_name": "Ross",
        "position": "G-F",
        "team_id": 22,
        "weight_pounds": 206
      },
      "pts": 18,
      "reb": 6,
      "stl": 1,
      "team": {
        "id": 22,
        "abbreviation": "ORL",
        "city": "Orlando",
        "conference": "East",
        "division": "Southeast",
        "full_name": "Orlando Magic",
        "name": "Magic"
      },
      "turnover": 1
    },
    {
      "id": 2791488,
      "ast": 5,
      "blk": 0,
      "dreb": 3,
      "fg3_pct": 42.9,
      "fg3a": 7,
      "fg3m": 3,
      "fg_pct": 37.5,
      "fga": 8,
      "fgm": 3,
      "ft_pct": 0.0,
      "fta": 0,
      "ftm": 0,
      "game": {
        "id": 117687,
        "date": "2020-08-18T00:00:00.000Z",
        "home_team_id": 17,
        "home_team_score": 110,
        "period": 4,
        "postseason": true,
        "season": 2019,
        "status": "Final",
        "time": "",
        "visitor_team_id": 22,
        "visitor_team_score": 122
      },
      "min": "35:33",
      "oreb": 0,
      "pf": 4,
      "player": {
        "id": 160,
        "first_name": "Evan",
        "height_feet": 6,
        "height_inches": 7,
        "last_name": "Fournier",
        "position": "G-F",
        "team_id": 20,
        "weight_pounds": 205
      },
      "pts": 9,
      "reb": 3,
      "stl": 0,
      "team": {
        "id": 22,
        "abbreviation": "ORL",
        "city": "Orlando",
        "conference": "East",
        "division": "Southeast",
        "full_name": "Orlando Magic",
        "name": "Magic"
      },
      "turnover": 3
    },
    {
      "id": 2791497,
      "ast": 4,
      "blk": 1,
      "dreb": 6,
      "fg3_pct": 33.3,
      "fg3a": 6,
      "fg3m": 2,
      "fg_pct": 33.3,
      "fga": 12,
      "fgm": 4,
      "ft_pct": 66.7,
      "fta": 6,
      "ftm": 4,
      "game": {
        "id": 117687,
        "date": "2020-08-18T00:00:00.000Z",
        "home_team_id": 17,
        "home_team_score": 110,
        "period": 4,
        "postseason": true,
        "season": 2019,
        "status": "Final",
        "time": "",
        "visitor_team_id": 22,
        "visitor_team_score": 122
      },
      "min": "31:15",
      "oreb": 0,
      "pf": 4,
      "player": {
        "id": 315,
        "first_name": "Khris",
        "height_feet": 6,
        "height_inches": 8,
        "last_name": "Middleton",
        "position": "F",
        "team_id": 17,
        "weight_pounds": 222
      },
      "pts": 14,
      "reb": 6,
      "stl": 1,
      "team": {
        "id": 17,
        "abbreviation": "MIL",
        "city": "Milwaukee",
        "conference": "East",
        "division": "Central",
        "full_name": "Milwaukee Bucks",
        "name": "Bucks"
      },
      "turnover": 4
    },
    {
      "id": 2791498,
      "ast": 7,
      "blk": 0,
      "dreb": 13,
      "fg3_pct": 42.9,
      "fg3a": 7,
      "fg3m": 3,
      "fg_pct": 48.0,
      "fga": 25,
      "fgm": 12,
      "ft_pct": 44.4,
      "fta": 9,
      "ftm": 4,
      "game": {
        "id": 117687,
        "date": "2020-08-18T00:00:00.000Z",
        "home_team_id": 17,
        "home_team_score": 110,
        "period": 4,
        "postseason": true,
        "season": 2019,
        "status": "Final",
        "time": "",
        "visitor_team_id": 22,
        "visitor_team_score": 122
      },
      "min": "34:27",
      "oreb": 4,
      "pf": 5,
      "player": {
        "id": 15,
        "first_name": "Giannis",
        "height_feet": 6,
        "height_inches": 11,
        "last_name": "Antetokounmpo",
        "position": "F",
        "team_id": 17,
        "weight_pounds": 242
      },
      "pts": 31,
      "reb": 17,
      "stl": 1,
      "team": {
        "id": 17,
        "abbreviation": "MIL",
        "city": "Milwaukee",
        "conference": "East",
        "division": "Central",
        "full_name": "Milwaukee Bucks",
        "name": "Bucks"
      },
      "turnover": 5
    },
    {
      "id": 2791485,
      "ast": 2,
      "blk": 1,
      "dreb": 8,
      "fg3_pct": 66.7,
      "fg3a": 3,
      "fg3m": 2,
      "fg_pct": 60.0,
      "fga": 5,
      "fgm": 3,
      "ft_pct": 100.0,
      "fta": 3,
      "ftm": 3,
      "game": {
        "id": 117687,
        "date": "2020-08-18T00:00:00.000Z",
        "home_team_id": 17,
        "home_team_score": 110,
        "period": 4,
        "postseason": true,
        "season": 2019,
        "status": "Final",
        "time": "",
        "visitor_team_id": 22,
        "visitor_team_score": 122
      },
      "min": "31:20",
      "oreb": 0,
      "pf": 4,
      "player": {
        "id": 146,
        "first_name": "James",
        "height_feet": 6,
        "height_inches": 7,
        "last_name": "Ennis III",
        "position": "F",
        "team_id": 22,
        "weight_pounds": 210
      },
      "pts": 11,
      "reb": 8,
      "stl": 2,
      "team": {
        "id": 22,
        "abbreviation": "ORL",
        "city": "Orlando",
        "conference": "East",
        "division": "Southeast",
        "full_name": "Orlando Magic",
        "name": "Magic"
      },
      "turnover": 0
    },
    {
      "id": 2791492,
      "ast": 0,
      "blk": 0,
      "dreb": 2,
      "fg3_pct": 0.0,
      "fg3a": 0,
      "fg3m": 0,
      "fg_pct": 50.0,
      "fga": 2,
      "fgm": 1,
      "ft_pct": 100.0,
      "fta": 2,
      "ftm": 2,
      "game": {
        "id": 117687,
        "date": "2020-08-18T00:00:00.000Z",
        "home_team_id": 17,
        "home_team_score": 110,
        "period": 4,
        "postseason": true,
        "season": 2019,
        "status": "Final",
        "time": "",
        "visitor_team_id": 22,
        "visitor_team_score": 122
      },
      "min": "14:27",
      "oreb": 1,
      "pf": 3,
      "player": {
        "id": 46,
        "first_name": "Khem",
        "height_feet": 6,
        "height_inches": 9,
        "last_name": "Birch",
        "position": "C",
        "team_id": 28,
        "weight_pounds": 233
      },
      "pts": 4,
      "reb": 3,
      "stl": 0,
      "team": {
        "id": 22,
        "abbreviation": "ORL",
        "city": "Orlando",
        "conference": "East",
        "division": "Southeast",
        "full_name": "Orlando Magic",
        "name": "Magic"
      },
      "turnover": 0
    },
    {
      "id": 2791505,
      "ast": 1,
      "blk": 0,
      "dreb": 2,
      "fg3_pct": 25.0,
      "fg3a": 4,
      "fg3m": 1,
      "fg_pct": 25.0,
      "fga": 4,
      "fgm": 1,
      "ft_pct": 0.0,
      "fta": 0,
      "ftm": 0,
      "game": {
        "id": 117687,
        "date": "2020-08-18T00:00:00.000Z",
        "home_team_id": 17,
        "home_team_score": 110,
        "period": 4,
        "postseason": true,
        "season": 2019,
        "status": "Final",
        "time": "",
        "visitor_team_id": 22,
        "visitor_team_score": 122
      },
      "min": "22:19",
      "oreb": 1,
      "pf": 3,
      "player": {
        "id": 105,
        "first_name": "Pat",
        "height_feet": 6,
        "height_inches": 4,
        "last_name": "Connaughton",
        "position": "G",
        "team_id": 17,
        "weight_pounds": 209
      },
      "pts": 3,
      "reb": 3,
      "stl": 0,
      "team": {
        "id": 17,
        "abbreviation": "MIL",
        "city": "Milwaukee",
        "conference": "East",
        "division": "Central",
        "full_name": "Milwaukee Bucks",
        "name": "Bucks"
      },
      "turnover": 1
    },
    {
      "id": 2791489,
      "ast": 6,
      "blk": 1,
      "dreb": 2,
      "fg3_pct": 25.0,
      "fg3a": 4,
      "fg3m": 1,
      "fg_pct": 54.5,
      "fga": 11,
      "fgm": 6,
      "ft_pct": 100.0,
      "fta": 2,
      "ftm": 2,
      "game": {
        "id": 117687,
        "date": "2020-08-18T00:00:00.000Z",
        "home_team_id": 17,
        "home_team_score": 110,
        "period": 4,
        "postseason": true,
        "season": 2019,
        "status": "Final",
        "time": "",
        "visitor_team_id": 22,
        "visitor_team_score": 122
      },
      "min": "29:22",
      "oreb": 0,
      "pf": 3,
      "player": {
        "id": 165,
        "first_name": "Markelle",
        "height_feet": 6,
        "height_inches": 4,
        "last_name": "Fultz",
        "position": "G",
        "team_id": 22,
        "weight_pounds": 200
      },
      "pts": 15,
      "reb": 2,
      "stl": 0,
      "team": {
        "id": 22,
        "abbreviation": "ORL",
        "city": "Orlando",
        "conference": "East",
        "division": "Southeast",
        "full_name": "Orlando Magic",
        "name": "Magic"
      },
      "turnover": 3
    },
    {
      "id": 2791493,
      "ast": 0,
      "blk": 0,
      "dreb": 3,
      "fg3_pct": 0.0,
      "fg3a": 0,
      "fg3m": 0,
      "fg_pct": 66.7,
      "fga": 3,
      "fgm": 2,
      "ft_pct": 0.0,
      "fta": 1,
      "ftm": 0,
      "game": {
        "id": 117687,
        "date": "2020-08-18T00:00:00.000Z",
        "home_team_id": 17,
        "home_team_score": 110,
        "period": 4,
        "postseason": true,
        "season": 2019,
        "status": "Final",
        "time": "",
        "visitor_team_id": 22,
        "visitor_team_score": 122
      },
      "min": "12:27",
      "oreb": 0,
      "pf": 2,
      "player": {
        "id": 230,
        "first_name": "Wes",
        "height_feet": 6,
        "height_inches": 7,
        "last_name": "Iwundu",
        "position": "F",
        "team_id": 4,
        "weight_pounds": 195
      },
      "pts": 4,
      "reb": 3,
      "stl": 0,
      "team": {
        "id": 22,
        "abbreviation": "ORL",
        "city": "Orlando",
        "conference": "East",
        "division": "Southeast",
        "full_name": "Orlando Magic",
        "name": "Magic"
      },
      "turnover": 1
    },
    {
      "id": 2791508,
      "ast": 1,
      "blk": 0,
      "dreb": 0,
      "fg3_pct": 0.0,
      "fg3a": 0,
      "fg3m": 0,
      "fg_pct": 0.0,
      "fga": 0,
      "fgm": 0,
      "ft_pct": 0.0,
      "fta": 0,
      "ftm": 0,
      "game": {
        "id": 117687,
        "date": "2020-08-18T00:00:00.000Z",
        "home_team_id": 17,
        "home_team_score": 110,
        "period": 4,
        "postseason": true,
        "season": 2019,
        "status": "Final",
        "time": "",
        "visitor_team_id": 22,
        "visitor_team_score": 122
      },
      "min": "0:25",
      "oreb": 0,
      "pf": 0,
      "player": {
        "id": 299,
        "first_name": "Frank",
        "height_feet": 5,
        "height_inches": 11,
        "last_name": "Mason",
        "position": "G",
        "team_id": 23,
        "weight_pounds": 190
      },
      "pts": 0,
      "reb": 0,
      "stl": 0,
      "team": {
        "id": 17,
        "abbreviation": "MIL",
        "city": "Milwaukee",
        "conference": "East",
        "division": "Central",
        "full_name": "Milwaukee Bucks",
        "name": "Bucks"
      },
      "turnover": 0
    },
    {
      "id": 2791509,
      "ast": 0,
      "blk": 0,
      "dreb": 0,
      "fg3_pct": 0.0,
      "fg3a": 0,
      "fg3m": 0,
      "fg_pct": 0.0,
      "fga": 0,
      "fgm": 0,
      "ft_pct": 0.0,
      "fta": 0,
      "ftm": 0,
      "game": {
        "id": 117687,
        "date": "2020-08-18T00:00:00.000Z",
        "home_team_id": 17,
        "home_team_score": 110,
        "period": 4,
        "postseason": true,
        "season": 2019,
        "status": "Final",
        "time": "",
        "visitor_team_id": 22,
        "visitor_team_score": 122
      },
      "min": "0:00",
      "oreb": 0,
      "pf": 0,
      "player": {
        "id": 72,
        "first_name": "Sterling",
        "height_feet": 6,
        "height_inches": 6,
        "last_name": "Brown",
        "position": "G",
        "team_id": 7,
        "weight_pounds": 232
      },
      "pts": 0,
      "reb": 0,
      "stl": 0,
      "team": {
        "id": 17,
        "abbreviation": "MIL",
        "city": "Milwaukee",
        "conference": "East",
        "division": "Central",
        "full_name": "Milwaukee Bucks",
        "name": "Bucks"
      },
      "turnover": 0
    },
    {
      "id": 2791502,
      "ast": 1,
      "blk": 0,
      "dreb": 3,
      "fg3_pct": 0.0,
      "fg3a": 2,
      "fg3m": 0,
      "fg_pct": 16.7,
      "fga": 6,
      "fgm": 1,
      "ft_pct": 0.0,
      "fta": 0,
      "ftm": 0,
      "game": {
        "id": 117687,
        "date": "2020-08-18T00:00:00.000Z",
        "home_team_id": 17,
        "home_team_score": 110,
        "period": 4,
        "postseason": true,
        "season": 2019,
        "status": "Final",
        "time": "",
        "visitor_team_id": 22,
        "visitor_team_score": 122
      },
      "min": "12:42",
      "oreb": 1,
      "pf": 0,
      "player": {
        "id": 131,
        "first_name": "Donte",
        "height_feet": 6,
        "height_inches": 4,
        "last_name": "DiVincenzo",
        "position": "G",
        "team_id": 17,
        "weight_pounds": 203
      },
      "pts": 2,
      "reb": 4,
      "stl": 0,
      "team": {
        "id": 17,
        "abbreviation": "MIL",
        "city": "Milwaukee",
        "conference": "East",
        "division": "Central",
        "full_name": "Milwaukee Bucks",
        "name": "Bucks"
      },
      "turnover": 0
    },
    {
      "id": 2791494,
      "ast": 0,
      "blk": 0,
      "dreb": 0,
      "fg3_pct": 0.0,
      "fg3a": 0,
      "fg3m": 0,
      "fg_pct": 0.0,
      "fga": 0,
      "fgm": 0,
      "ft_pct": 0.0,
      "fta": 0,
      "ftm": 0,
      "game": {
        "id": 117687,
        "date": "2020-08-18T00:00:00.000Z",
        "home_team_id": 17,
        "home_team_score": 110,
        "period": 4,
        "postseason": true,
        "season": 2019,
        "status": "Final",
        "time": "",
        "visitor_team_id": 22,
        "visitor_team_score": 122
      },
      "min": "0:00",
      "oreb": 0,
      "pf": 0,
      "player": {
        "id": 162,
        "first_name": "Melvin",
        "height_feet": 6,
        "height_inches": 6,
        "last_name": "Frazier Jr.",
        "position": "G-F",
        "team_id": 30,
        "weight_pounds": 200
      },
      "pts": 0,
      "reb": 0,
      "stl": 0,
      "team": {
        "id": 22,
        "abbreviation": "ORL",
        "city": "Orlando",
        "conference": "East",
        "division": "Southeast",
        "full_name": "Orlando Magic",
        "name": "Magic"
      },
      "turnover": 0
    },
    {
      "id": 2791486,
      "ast": 0,
      "blk": 0,
      "dreb": 6,
      "fg3_pct": 33.3,
      "fg3a": 12,
      "fg3m": 4,
      "fg_pct": 33.3,
      "fga": 12,
      "fgm": 4,
      "ft_pct": 100.0,
      "fta": 3,
      "ftm": 3,
      "game": {
        "id": 117687,
        "date": "2020-08-18T00:00:00.000Z",
        "home_team_id": 17,
        "home_team_score": 110,
        "period": 4,
        "postseason": true,
        "season": 2019,
        "status": "Final",
        "time": "",
        "visitor_team_id": 22,
        "visitor_team_score": 122
      },
      "min": "28:24",
      "oreb": 0,
      "pf": 2,
      "player": {
        "id": 98,
        "first_name": "Gary",
        "height_feet": 6,
        "height_inches": 8,
        "last_name": "Clark",
        "position": "F",
        "team_id": 19,
        "weight_pounds": 225
      },
      "pts": 15,
      "reb": 6,
      "stl": 1,
      "team": {
        "id": 22,
        "abbreviation": "ORL",
        "city": "Orlando",
        "conference": "East",
        "division": "Southeast",
        "full_name": "Orlando Magic",
        "name": "Magic"
      },
      "turnover": 0
    },
    {
      "id": 2791495,
      "ast": 0,
      "blk": 0,
      "dreb": 0,
      "fg3_pct": 0.0,
      "fg3a": 0,
      "fg3m": 0,
      "fg_pct": 0.0,
      "fga": 0,
      "fgm": 0,
      "ft_pct": 0.0,
      "fta": 0,
      "ftm": 0,
      "game": {
        "id": 117687,
        "date": "2020-08-18T00:00:00.000Z",
        "home_team_id": 17,
        "home_team_score": 110,
        "period": 4,
        "postseason": true,
        "season": 2019,
        "status": "Final",
        "time": "",
        "visitor_team_id": 22,
        "visitor_team_score": 122
      },
      "min": "0:00",
      "oreb": 0,
      "pf": 0,
      "player": {
        "id": 50815,
        "first_name": "BJ",
        "height_feet": null,
        "height_inches": null,
        "last_name": "Johnson",
        "position": "F",
        "team_id": 12,
        "weight_pounds": null
      },
      "pts": 0,
      "reb": 0,
      "stl": 0,
      "team": {
        "id": 22,
        "abbreviation": "ORL",
        "city": "Orlando",
        "conference": "East",
        "division": "Southeast",
        "full_name": "Orlando Magic",
        "name": "Magic"
      },
      "turnover": 0
    },
    {
      "id": 2791496,
      "ast": 0,
      "blk": 0,
      "dreb": 0,
      "fg3_pct": 0.0,
      "fg3a": 0,
      "fg3m": 0,
      "fg_pct": 0.0,
      "fga": 0,
      "fgm": 0,
      "ft_pct": 0.0,
      "fta": 0,
      "ftm": 0,
      "game": {
        "id": 117687,
        "date": "2020-08-18T00:00:00.000Z",
        "home_team_id": 17,
        "home_team_score": 110,
        "period": 4,
        "postseason": true,
        "season": 2019,
        "status": "Final",
        "time": "",
        "visitor_team_id": 22,
        "visitor_team_score": 122
      },
      "min": "0:00",
      "oreb": 0,
      "pf": 0,
      "player": {
        "id": 666717,
        "first_name": "Vic",
        "height_feet": null,
        "height_inches": null,
        "last_name": "Law",
        "position": "F",
        "team_id": 14,
        "weight_pounds": null
      },
      "pts": 0,
      "reb": 0,
      "stl": 0,
      "team": {
        "id": 22,
        "abbreviation": "ORL",
        "city": "Orlando",
        "conference": "East",
        "division": "Southeast",
        "full_name": "Orlando Magic",
        "name": "Magic"
      },
      "turnover": 0
    }
  ],
  "meta": {
    "total_pages": 86,
    "current_page": 1,
    "next_page": 2,
    "per_page": 25,
    "total_count": 2143
  }
}
